tidy data and visualisation with ggplot2
…
What columns define a unique row?

What is tidy data? 3

tidy data is almost always a good starting point - it’s very flexible.

Also, R is very good at “vectorised operations” - which means taking some orders that have this kind of format:

We take some set of columns and follow the same set of instructions for every row in those columns. E.g on each row, we subtract arr_delay from dep_delay, divide by distance, etc.

flights %>%
  mutate(made_up_speed = (dep_delay - arr_delay) / (distance / 1000)) %>%
  select(dep_delay, arr_delay, distance, made_up_speed)

# A tibble: 336,776 x 4
   dep_delay arr_delay distance made_up_speed
       <dbl>     <dbl>    <dbl>         <dbl>
 1         2        11     1400         -6.43
 2         4        20     1416        -11.3 
 3         2        33     1089        -28.5 
 4        -1       -18     1576         10.8 
 5        -6       -25      762         24.9 
 6        -4        12      719        -22.3 
 7        -5        19     1065        -22.5 
 8        -3       -14      229         48.0 
 9        -3        -8      944          5.30
10        -2         8      733        -13.6 
# ... with 336,766 more rows
…
flights %>%
  select(flight, carrier, origin, dep_delay) %>%
  pivot_wider(values_from = dep_delay,
              names_from = origin)

Warning: Values from `dep_delay` are not uniquely identified; output will contain list-cols.
* Use `values_fn = list` to suppress this warning.
* Use `values_fn = {summary_fun}` to summarise duplicates.
* Use the following dplyr code to identify duplicates.
  {data} %>%
    dplyr::group_by(flight, carrier, origin) %>%
    dplyr::summarise(n = dplyr::n(), .groups = "drop") %>%
    dplyr::filter(n > 1L)

# A tibble: 5,725 x 5
   flight carrier EWR         LGA         JFK        
    <int> <chr>   <list>      <list>      <list>     
 1   1545 UA      <dbl [85]>  <NULL>      <NULL>     
 2   1714 UA      <dbl [1]>   <dbl [140]> <NULL>     
 3   1141 AA      <NULL>      <NULL>      <dbl [91]> 
 4    725 B6      <NULL>      <NULL>      <dbl [119]>
 5    461 DL      <NULL>      <dbl [268]> <NULL>     
 6   1696 UA      <dbl [9]>   <NULL>      <NULL>     
 7    507 B6      <dbl [168]> <NULL>      <NULL>     
 8   5708 EV      <NULL>      <dbl [14]>  <dbl [1]>  
 9     79 B6      <NULL>      <NULL>      <dbl [162]>
10    301 AA      <NULL>      <dbl [285]> <NULL>     
# ... with 5,715 more rows

We get a warning because there are lots of rows in the data with the same flight and carrier - they’ve just happened on different days, which we haven’t included. So each of the new cells we’ve made has multiple bits of data that fit in it.

If we also include time_hour, now all of our rows are unique!

flights %>%
  select(flight, carrier, time_hour, origin, dep_delay) %>%
  pivot_wider(values_from = dep_delay,
              names_from = origin)

# A tibble: 336,776 x 6
   flight carrier time_hour             EWR   LGA   JFK
    <int> <chr>   <dttm>              <dbl> <dbl> <dbl>
 1   1545 UA      2013-01-01 05:00:00     2    NA    NA
 2   1714 UA      2013-01-01 05:00:00    NA     4    NA
 3   1141 AA      2013-01-01 05:00:00    NA    NA     2
 4    725 B6      2013-01-01 05:00:00    NA    NA    -1
 5    461 DL      2013-01-01 06:00:00    NA    -6    NA
 6   1696 UA      2013-01-01 05:00:00    -4    NA    NA
 7    507 B6      2013-01-01 06:00:00    -5    NA    NA
 8   5708 EV      2013-01-01 06:00:00    NA    -3    NA
 9     79 B6      2013-01-01 06:00:00    NA    NA    -3
10    301 AA      2013-01-01 06:00:00    NA    -2    NA
# ... with 336,766 more rows
…
Stretch: work out the median arrival delay for each carrier and destination airport. Hint: use the values_fn argument for pivot_wider.

Long data

flights_long <- flights %>%
  slice_sample(n = 1000) %>%
  select(year, month, day, flight, carrier, origin, arr_delay, dep_delay) %>%
  pivot_longer(cols = c(arr_delay, dep_delay),
               names_to = 'delay type',
               values_to = 'delay time')

flights_long

# A tibble: 2,000 x 8
    year month   day flight carrier origin `delay type` `delay time`
   <int> <int> <int>  <int> <chr>   <chr>  <chr>               <dbl>
 1  2013     8    17    677 B6      JFK    arr_delay              -1
 2  2013     8    17    677 B6      JFK    dep_delay              -3
 3  2013     6    27   1935 DL      LGA    arr_delay              -8
 4  2013     6    27   1935 DL      LGA    dep_delay               0
 5  2013    10    20    553 B6      JFK    arr_delay               4
 6  2013    10    20    553 B6      JFK    dep_delay              -2
 7  2013     5    19   1687 UA      EWR    arr_delay              39
 8  2013     5    19   1687 UA      EWR    dep_delay              58
 9  2013     8    26   2502 B6      JFK    arr_delay              -5
10  2013     8    26   2502 B6      JFK    dep_delay              -4
# ... with 1,990 more rows
…
And make it tidy:

We want to merge together the origin airports into a single column, and put the delay in a new column next to it.

flights_wide %>%
  pivot_longer(cols = c(JFK, LGA, EWR),
               names_to = "origin",
               values_to = "mean_arrival_delay")

# A tibble: 39 x 3
   carrier origin mean_arrival_delay
   <chr>   <chr>               <dbl>
 1 HA      JFK                 -0.2 
 2 HA      LGA                 NA   
 3 HA      EWR                 NA   
 4 B6      JFK                 NA   
 5 B6      LGA                  4.73
 6 B6      EWR                  3.48
 7 MQ      JFK                 NA   
 8 MQ      LGA                 NA   
 9 MQ      EWR                 16   
10 DL      JFK                 -6.31
# ... with 29 more rows
…
